…
Below is a table summarizing the number of items ordered from aisle. In
total, there are 134 aisles, with fresh vegetables and fresh fruits
holding the most items ordered by far.

``` r
instacart %>% 
  count(aisle) %>% 
  arrange(desc(n))
```

    ## # A tibble: 134 × 2
    ##    aisle                              n
    ##    <chr>                          <int>
    ##  1 fresh vegetables              150609
    ##  2 fresh fruits                  150473
    ##  3 packaged vegetables fruits     78493
    ##  4 yogurt                         55240
    ##  5 packaged cheese                41699
    ##  6 water seltzer sparkling water  36617
    ##  7 milk                           32644
    ##  8 chips pretzels                 31269
    ##  9 soy lactosefree                26240
    ## 10 bread                          23635
    ## # … with 124 more rows
…
Find what are the most commonly observed values in snowfall.

``` r
clean_ny_noaa %>%
  count(snow)
```

    ## # A tibble: 282 × 2
    ##     snow       n
    ##    <dbl>   <int>
    ##  1 -0.13       1
    ##  2  0    2008508
    ##  3  0.03    8790
    ##  4  0.05    9748
    ##  5  0.08    9962
    ##  6  0.1     5106
    ##  7  0.13   23095
    ##  8  0.15    3672
    ##  9  0.18    3226
    ## 10  0.2     4797
    ## # … with 272 more rows
…
